[gd_resource type="Theme" load_steps=2 format=2]

[ext_resource path="res://styleboxflat_em.tres" type="StyleBox" id=1]

[resource]
Label/colors/font_color = Color( 0.0352941, 0.0235294, 0.00392157, 1 )
Label/colors/font_color_shadow = Color( 0, 0, 0, 0 )
Label/colors/font_outline_modulate = Color( 0.823529, 0.721569, 0.168627, 1 )
Label/constants/line_spacing = 3
Label/constants/shadow_as_outline = 0
Label/constants/shadow_offset_x = 1
Label/constants/shadow_offset_y = 1
Label/fonts/font = null
Label/styles/normal = ExtResource( 1 )
